%YAML 1.1
%TAG !u! tag:unity3d.com,2011:
--- !u!114 &11400000
MonoBehaviour:
  m_ObjectHideFlags: 0
  m_PrefabParentObject: {fileID: 0}
  m_PrefabInternal: {fileID: 0}
  m_GameObject: {fileID: 0}
  m_Enabled: 1
  m_EditorHideFlags: 0
  m_Script: {fileID: 11500000, guid: ee359a3ea45bf1548b9a2dbaaac10724, type: 3}
  m_Name: WhiteRook
  m_EditorClassIdentifier: 
  characterName: Standard White Rook
  characterSprite: {fileID: 21300000, guid: c00ebeb9c75a04a46875d13ddfd5bb91, type: 3}
  background: {fileID: 21300000, guid: fe3524855a4e16a4a932d285e27b1ff6, type: 3}
  pieceType: 4
  isWhite: 1
  description: This piece can move in a straight line as far as it can without jumping
    over other pieces.
  level: 1
  power: 1
  defense: 1
